 Volume in drive E is XtraHD
 Volume Serial Number is 72F3-7F86

 Directory of E:\webdev\weather-crowd\src\svg

08/09/2020  08:04 AM    <DIR>          .
08/09/2020  08:04 AM    <DIR>          ..
08/07/2020  01:37 PM             1,524 wi-alien.svg
08/07/2020  01:37 PM             1,512 wi-barometer.svg
08/07/2020  01:37 PM             1,840 wi-celsius.svg
08/07/2020  01:37 PM             1,771 wi-cloud-down.svg
08/07/2020  01:37 PM             2,217 wi-cloud-refresh.svg
08/07/2020  01:37 PM             1,792 wi-cloud-up.svg
08/07/2020  01:37 PM             1,201 wi-cloud.svg
08/07/2020  01:37 PM             2,295 wi-cloudy-gusts.svg
08/07/2020  01:37 PM             1,991 wi-cloudy-windy.svg
08/07/2020  01:37 PM             1,761 wi-cloudy.svg
08/07/2020  01:37 PM             3,846 wi-day-cloudy-gusts.svg
08/07/2020  01:37 PM             2,768 wi-day-cloudy-high.svg
08/07/2020  01:37 PM             3,566 wi-day-cloudy-windy.svg
08/07/2020  01:37 PM             2,803 wi-day-cloudy.svg
08/07/2020  01:37 PM             3,390 wi-day-fog.svg
08/07/2020  01:37 PM             4,585 wi-day-hail.svg
08/07/2020  01:37 PM             3,602 wi-day-haze.svg
08/07/2020  01:37 PM             3,511 wi-day-light-wind.svg
08/07/2020  01:37 PM             3,057 wi-day-lightning.svg
08/07/2020  01:37 PM             5,420 wi-day-rain-mix.svg
08/07/2020  01:37 PM             4,395 wi-day-rain-wind.svg
08/07/2020  01:37 PM             3,745 wi-day-rain.svg
08/07/2020  01:37 PM             4,735 wi-day-showers.svg
08/07/2020  01:37 PM             4,473 wi-day-sleet-storm.svg
08/07/2020  01:37 PM             5,136 wi-day-sleet.svg
08/07/2020  01:37 PM             4,193 wi-day-snow-thunderstorm.svg
08/07/2020  01:37 PM             4,446 wi-day-snow-wind.svg
08/07/2020  01:37 PM             4,426 wi-day-snow.svg
08/07/2020  01:37 PM             3,559 wi-day-sprinkle.svg
08/07/2020  01:37 PM             4,276 wi-day-storm-showers.svg
08/07/2020  01:37 PM             3,059 wi-day-sunny-overcast.svg
08/07/2020  01:37 PM             2,858 wi-day-sunny.svg
08/07/2020  01:37 PM             3,688 wi-day-thunderstorm.svg
08/07/2020  01:37 PM             3,844 wi-day-windy.svg
08/07/2020  01:37 PM               836 wi-degrees.svg
08/07/2020  01:37 PM               829 wi-direction-down-left.svg
08/07/2020  01:37 PM               763 wi-direction-down-right.svg
08/07/2020  01:37 PM               809 wi-direction-down.svg
08/07/2020  01:37 PM               783 wi-direction-left.svg
08/07/2020  01:37 PM               844 wi-direction-right.svg
08/07/2020  01:37 PM               772 wi-direction-up-left.svg
08/07/2020  01:37 PM               769 wi-direction-up-right.svg
08/07/2020  01:37 PM               815 wi-direction-up.svg
08/07/2020  01:37 PM             3,326 wi-dust.svg
08/07/2020  01:37 PM             1,564 wi-earthquake.svg
08/07/2020  01:37 PM             1,210 wi-fahrenheit.svg
08/07/2020  01:37 PM             2,240 wi-fire.svg
08/07/2020  01:37 PM             2,288 wi-flood.svg
08/07/2020  01:37 PM             1,852 wi-fog.svg
08/07/2020  01:37 PM               477 wi-gale-warning.svg
08/07/2020  01:37 PM             3,245 wi-hail.svg
08/07/2020  01:37 PM             2,511 wi-horizon-alt.svg
08/07/2020  01:37 PM             1,739 wi-horizon.svg
08/07/2020  01:37 PM             6,215 wi-hot.svg
08/07/2020  01:37 PM             2,335 wi-humidity.svg
08/07/2020  01:37 PM               533 wi-hurricane-warning.svg
08/07/2020  01:37 PM             1,632 wi-hurricane.svg
08/07/2020  01:37 PM               806 wi-lightning.svg
08/07/2020  01:37 PM               973 wi-lunar-eclipse.svg
08/07/2020  01:37 PM             1,771 wi-meteor.svg
08/07/2020  01:37 PM               896 wi-moon-alt-first-quarter.svg
08/07/2020  01:37 PM             1,044 wi-moon-alt-full.svg
08/07/2020  01:37 PM               623 wi-moon-alt-new.svg
08/07/2020  01:37 PM               898 wi-moon-alt-third-quarter.svg
08/07/2020  01:37 PM               951 wi-moon-alt-waning-crescent-1.svg
08/07/2020  01:37 PM               943 wi-moon-alt-waning-crescent-2.svg
08/07/2020  01:37 PM               947 wi-moon-alt-waning-crescent-3.svg
08/07/2020  01:37 PM               965 wi-moon-alt-waning-crescent-4.svg
08/07/2020  01:37 PM               983 wi-moon-alt-waning-crescent-5.svg
08/07/2020  01:37 PM               964 wi-moon-alt-waning-crescent-6.svg
08/07/2020  01:37 PM             1,063 wi-moon-alt-waning-gibbous-1.svg
08/07/2020  01:37 PM             1,101 wi-moon-alt-waning-gibbous-2.svg
08/07/2020  01:37 PM             1,079 wi-moon-alt-waning-gibbous-3.svg
08/07/2020  01:37 PM             1,026 wi-moon-alt-waning-gibbous-4.svg
08/07/2020  01:37 PM             1,015 wi-moon-alt-waning-gibbous-5.svg
08/07/2020  01:37 PM               952 wi-moon-alt-waning-gibbous-6.svg
08/07/2020  01:37 PM               895 wi-moon-alt-waxing-crescent-1.svg
08/07/2020  01:37 PM               917 wi-moon-alt-waxing-crescent-2.svg
08/07/2020  01:37 PM               942 wi-moon-alt-waxing-crescent-3.svg
08/07/2020  01:37 PM               945 wi-moon-alt-waxing-crescent-4.svg
08/07/2020  01:37 PM               924 wi-moon-alt-waxing-crescent-5.svg
08/07/2020  01:37 PM               939 wi-moon-alt-waxing-crescent-6 .svg
08/07/2020  01:37 PM               957 wi-moon-alt-waxing-gibbous-1.svg
08/07/2020  01:37 PM               999 wi-moon-alt-waxing-gibbous-2.svg
08/07/2020  01:37 PM             1,039 wi-moon-alt-waxing-gibbous-3.svg
08/07/2020  01:37 PM             1,004 wi-moon-alt-waxing-gibbous-4.svg
08/07/2020  01:37 PM             1,010 wi-moon-alt-waxing-gibbous-5.svg
08/07/2020  01:37 PM             1,177 wi-moon-alt-waxing-gibbous-6 .svg
08/07/2020  01:37 PM               513 wi-moon-first-quarter.svg
08/07/2020  01:37 PM               623 wi-moon-full.svg
08/07/2020  01:37 PM             1,044 wi-moon-new.svg
08/07/2020  01:37 PM               515 wi-moon-third-quarter.svg
08/07/2020  01:37 PM               565 wi-moon-waning-crescent-1.svg
08/07/2020  01:37 PM               568 wi-moon-waning-crescent-2.svg
08/07/2020  01:37 PM               588 wi-moon-waning-crescent-3.svg
08/07/2020  01:37 PM               604 wi-moon-waning-crescent-4 .svg
08/07/2020  01:37 PM               656 wi-moon-waning-crescent-5.svg
08/07/2020  01:37 PM               771 wi-moon-waning-crescent-6.svg
08/07/2020  01:37 PM               713 wi-moon-waning-gibbous-1.svg
08/07/2020  01:37 PM               672 wi-moon-waning-gibbous-2.svg
08/07/2020  01:37 PM               691 wi-moon-waning-gibbous-3.svg
08/07/2020  01:37 PM               611 wi-moon-waning-gibbous-4.svg
08/07/2020  01:37 PM               569 wi-moon-waning-gibbous-5 .svg
08/07/2020  01:37 PM               588 wi-moon-waning-gibbous-6.svg
08/07/2020  01:37 PM               764 wi-moon-waxing-crescent-1.svg
08/07/2020  01:37 PM               712 wi-moon-waxing-crescent-2.svg
08/07/2020  01:37 PM               666 wi-moon-waxing-crescent-3.svg
08/07/2020  01:37 PM               672 wi-moon-waxing-crescent-4.svg
08/07/2020  01:37 PM               582 wi-moon-waxing-crescent-5.svg
08/07/2020  01:37 PM               582 wi-moon-waxing-crescent-6 .svg
08/07/2020  01:37 PM               593 wi-moon-waxing-gibbous-1.svg
08/07/2020  01:37 PM               567 wi-moon-waxing-gibbous-2.svg
08/07/2020  01:37 PM               637 wi-moon-waxing-gibbous-3.svg
08/07/2020  01:37 PM               662 wi-moon-waxing-gibbous-4 .svg
08/07/2020  01:37 PM               678 wi-moon-waxing-gibbous-5.svg
08/07/2020  01:37 PM               683 wi-moon-waxing-gibbous-6.svg
08/07/2020  01:37 PM             1,266 wi-moonrise.svg
08/07/2020  01:37 PM             1,354 wi-moonset.svg
08/07/2020  01:37 PM               626 wi-na.svg
08/07/2020  01:37 PM             2,898 wi-night-alt-cloudy-gusts.svg
08/07/2020  01:37 PM             1,645 wi-night-alt-cloudy-high.svg
08/07/2020  01:37 PM             2,625 wi-night-alt-cloudy-windy.svg
08/07/2020  01:37 PM             1,940 wi-night-alt-cloudy.svg
08/07/2020  01:37 PM             3,684 wi-night-alt-hail.svg
08/07/2020  01:37 PM             2,137 wi-night-alt-lightning.svg
08/07/2020  01:37 PM             1,933 wi-night-alt-partly-cloudy.svg
08/07/2020  01:37 PM             4,568 wi-night-alt-rain-mix.svg
08/07/2020  01:37 PM             3,431 wi-night-alt-rain-wind.svg
08/07/2020  01:37 PM             2,859 wi-night-alt-rain.svg
08/07/2020  01:37 PM             3,638 wi-night-alt-showers.svg
08/07/2020  01:37 PM             3,488 wi-night-alt-sleet-storm.svg
08/07/2020  01:37 PM             4,091 wi-night-alt-sleet.svg
08/07/2020  01:37 PM             3,227 wi-night-alt-snow-thunderstorm.svg
08/07/2020  01:37 PM             3,568 wi-night-alt-snow-wind.svg
08/07/2020  01:37 PM             3,521 wi-night-alt-snow.svg
08/07/2020  01:37 PM             2,706 wi-night-alt-sprinkle.svg
08/07/2020  01:37 PM             3,319 wi-night-alt-storm-showers.svg
08/07/2020  01:37 PM             2,707 wi-night-alt-thunderstorm.svg
08/07/2020  01:37 PM             1,227 wi-night-clear.svg
08/07/2020  01:37 PM             2,565 wi-night-cloudy-gusts.svg
08/07/2020  01:37 PM             1,842 wi-night-cloudy-high.svg
08/07/2020  01:37 PM             2,259 wi-night-cloudy-windy.svg
08/07/2020  01:37 PM             1,407 wi-night-cloudy.svg
08/07/2020  01:37 PM             2,258 wi-night-fog.svg
08/07/2020  01:37 PM             3,424 wi-night-hail.svg
08/07/2020  01:37 PM             1,809 wi-night-lightning.svg
08/07/2020  01:37 PM             1,605 wi-night-partly-cloudy.svg
08/07/2020  01:37 PM             4,302 wi-night-rain-mix.svg
08/07/2020  01:37 PM             3,048 wi-night-rain-wind.svg
08/07/2020  01:37 PM             2,497 wi-night-rain.svg
08/07/2020  01:37 PM             3,389 wi-night-showers.svg
08/07/2020  01:37 PM             3,165 wi-night-sleet-storm.svg
08/07/2020  01:37 PM             3,731 wi-night-sleet.svg
08/07/2020  01:37 PM             2,896 wi-night-snow-thunderstorm.svg
08/07/2020  01:37 PM             3,197 wi-night-snow-wind.svg
08/07/2020  01:37 PM             3,154 wi-night-snow.svg
08/07/2020  01:37 PM             2,381 wi-night-sprinkle.svg
08/07/2020  01:37 PM             3,055 wi-night-storm-showers.svg
08/07/2020  01:37 PM             2,319 wi-night-thunderstorm.svg
08/07/2020  01:37 PM             3,957 wi-rain-mix.svg
08/07/2020  01:37 PM             2,987 wi-rain-wind.svg
08/07/2020  01:37 PM             2,378 wi-rain.svg
08/07/2020  01:37 PM               760 wi-raindrop.svg
08/07/2020  01:37 PM             1,231 wi-raindrops.svg
08/07/2020  01:37 PM             1,051 wi-refresh-alt.svg
08/07/2020  01:37 PM             1,185 wi-refresh.svg
08/07/2020  01:37 PM             3,368 wi-sandstorm.svg
08/07/2020  01:37 PM             3,385 wi-showers.svg
08/07/2020  01:37 PM             3,810 wi-sleet.svg
08/07/2020  01:37 PM               437 wi-small-craft-advisory.svg
08/07/2020  01:37 PM             1,178 wi-smog.svg
08/07/2020  01:37 PM             1,763 wi-smoke.svg
08/07/2020  01:37 PM             2,994 wi-snow-wind.svg
08/07/2020  01:37 PM             2,985 wi-snow.svg
08/07/2020  01:37 PM             3,283 wi-snowflake-cold.svg
08/07/2020  01:37 PM             2,929 wi-solar-eclipse.svg
08/07/2020  01:37 PM             2,127 wi-sprinkle.svg
08/07/2020  01:37 PM             1,388 wi-stars.svg
08/07/2020  01:37 PM             2,893 wi-storm-showers.svg
08/07/2020  01:37 PM               464 wi-storm-warning.svg
08/07/2020  01:37 PM             1,412 wi-strong-wind.svg
08/07/2020  01:37 PM             2,642 wi-sunrise.svg
08/07/2020  01:37 PM             2,613 wi-sunset.svg
08/07/2020  01:37 PM             1,175 wi-thermometer-exterior.svg
08/07/2020  01:37 PM               738 wi-thermometer-internal.svg
08/07/2020  01:37 PM             1,540 wi-thermometer.svg
08/07/2020  01:37 PM             2,201 wi-thunderstorm.svg
08/07/2020  01:37 PM             1,278 wi-time-1.svg
08/07/2020  01:37 PM             1,282 wi-time-10.svg
08/07/2020  01:37 PM             1,299 wi-time-11.svg
08/07/2020  01:37 PM             1,194 wi-time-12.svg
08/07/2020  01:37 PM             1,271 wi-time-2.svg
08/07/2020  01:37 PM             1,270 wi-time-3.svg
08/07/2020  01:37 PM             1,254 wi-time-4.svg
08/07/2020  01:37 PM             1,235 wi-time-5.svg
08/07/2020  01:37 PM             1,162 wi-time-6.svg
08/07/2020  01:37 PM             1,241 wi-time-7.svg
08/07/2020  01:37 PM             1,264 wi-time-8.svg
08/07/2020  01:37 PM             1,261 wi-time-9.svg
08/07/2020  01:37 PM             2,618 wi-tornado.svg
08/07/2020  01:37 PM             2,683 wi-train.svg
08/07/2020  01:37 PM             2,721 wi-tsunami.svg
08/07/2020  01:37 PM             2,503 wi-umbrella.svg
08/07/2020  01:37 PM             2,364 wi-volcano.svg
08/07/2020  01:37 PM             2,166 wi-wind-beaufort-0.svg
08/07/2020  01:37 PM             1,463 wi-wind-beaufort-1.svg
08/07/2020  01:37 PM             2,124 wi-wind-beaufort-10.svg
08/07/2020  01:37 PM             1,517 wi-wind-beaufort-11.svg
08/07/2020  01:37 PM             2,115 wi-wind-beaufort-12.svg
08/07/2020  01:37 PM             2,099 wi-wind-beaufort-2.svg
08/07/2020  01:37 PM             2,267 wi-wind-beaufort-3.svg
08/07/2020  01:37 PM             1,564 wi-wind-beaufort-4.svg
08/07/2020  01:37 PM             2,033 wi-wind-beaufort-5.svg
08/07/2020  01:37 PM             2,343 wi-wind-beaufort-6.svg
08/07/2020  01:37 PM             1,561 wi-wind-beaufort-7.svg
08/07/2020  01:37 PM             2,744 wi-wind-beaufort-8.svg
08/07/2020  01:37 PM             2,379 wi-wind-beaufort-9.svg
08/07/2020  01:37 PM             1,185 wi-wind-deg.svg
08/07/2020  01:37 PM             1,359 wi-windy.svg
             219 File(s)        430,963 bytes
               2 Dir(s)  331,956,355,072 bytes free
